rrr for Multivariate Regression
…
To print a data frame of the residuals, set plot = FALSE.

residuals(tobacco_x, tobacco_y, rank = 1, plot = FALSE)

## # A tibble: 25 x 3
##    Y1.BurnRate Y2.PercentSugar Y3.PercentNicotine
##          <dbl>           <dbl>              <dbl>
##  1     -0.154            3.92              -0.902
##  2     -0.210            0.698             -0.697
##  3     -0.0730           3.35              -0.950
##  4     -0.201            2.98              -0.199
##  5     -0.124            1.64              -0.362
##  6     -0.0495           0.320             -1.24 
##  7     -0.0419           2.08              -0.339
##  8     -0.145            2.75              -0.190
##  9     -0.0979           1.53              -0.588
## 10     -0.355            2.61              -0.333
## # … with 15 more rows
…
Print data frame of rank trace coordinates by setting plot = FALSE.

rank_trace(digits_features, digits_features, type = "pca", plot = FALSE)

## # A tibble: 35 x 3
##     rank delta_C delta_residuals
##    <int>   <dbl>           <dbl>
##  1     0   1              1     
##  2     1   0.985          0.717 
##  3     2   0.970          0.468 
##  4     3   0.955          0.314 
##  5     4   0.939          0.224 
##  6     5   0.924          0.166 
##  7     6   0.907          0.118 
##  8     7   0.891          0.0874
##  9     8   0.874          0.0607
## 10     9   0.857          0.0414
## # … with 25 more rows
…
## $means
##        V1        V2        V3        V4        V5        V6        V7 
## 38.814320 85.120269 40.605622 83.774199 49.770378 65.573144 51.220251 
##        V8        V9       V10       V11       V12       V13       V14 
## 44.498999 56.868541 33.695961 60.516376 34.826510 55.022289 34.937045 
##       V15       V16       V17       V18       V19       V20       V21 
## 47.287482 28.845342  4.431587  5.341794 38.814320 85.120269 40.605622 
##       V22       V23       V24       V25       V26       V27       V28 
## 83.774199 49.770378 65.573144 51.220251 44.498999 56.868541 33.695961 
##       V29       V30       V31       V32       V33       V34 
## 60.516376 34.826510 55.022289 34.937045 47.287482 28.845342 
## 
## $C
## # A tibble: 34 x 34
##          V1       V2       V3       V4       V5       V6      V7      V8
##       <dbl>    <dbl>    <dbl>    <dbl>    <dbl>    <dbl>   <dbl>   <dbl>
##  1  0.152    0.0420   0.0576   0.0328  -0.0831  -0.00510 -0.129  -0.0361
##  2  0.0420   0.0131   0.0106   0.00544 -0.0279  -0.0101  -0.0393 -0.0212
##  3  0.0576   0.0106   0.0571   0.0430   0.00514  0.0486  -0.0471  0.0255
##  4  0.0328   0.00544  0.0430   0.0348   0.0144   0.0412  -0.0307  0.0193
##  5 -0.0831  -0.0279   0.00514  0.0144   0.0836   0.0544   0.0700  0.0567
##  6 -0.00510 -0.0101   0.0486   0.0412   0.0544   0.0743   0.0120  0.0654
##  7 -0.129   -0.0393  -0.0471  -0.0307   0.0700   0.0120   0.125   0.0568
##  8 -0.0361  -0.0212   0.0255   0.0193   0.0567   0.0654   0.0568  0.0899
##  9 -0.0438  -0.0180  -0.0366  -0.0382  -0.00298 -0.0138   0.0765  0.0514
## 10 -0.0516  -0.0206  -0.0229  -0.0228   0.0200   0.00720  0.0746  0.0570
## # … with 24 more rows, and 26 more variables: V9 <dbl>, V10 <dbl>,
## #   V11 <dbl>, V12 <dbl>, V13 <dbl>, V14 <dbl>, V15 <dbl>, V16 <dbl>,
## #   V17 <dbl>, V18 <dbl>, V19 <dbl>, V20 <dbl>, V21 <dbl>, V22 <dbl>,
## #   V23 <dbl>, V24 <dbl>, V25 <dbl>, V26 <dbl>, V27 <dbl>, V28 <dbl>,
## #   V29 <dbl>, V30 <dbl>, V31 <dbl>, V32 <dbl>, V33 <dbl>, V34 <dbl>
## 
## $PC
## # A tibble: 34 x 3
##        PC1      PC2     PC3
##      <dbl>    <dbl>   <dbl>
##  1  0.0286 -0.143   -0.362 
##  2  0.0468 -0.0335  -0.0990
##  3 -0.139   0.0467  -0.189 
##  4 -0.103   0.0832  -0.132 
##  5 -0.160   0.197    0.139 
##  6 -0.241   0.118   -0.0513
##  7 -0.106   0.0317   0.336 
##  8 -0.290  -0.00231  0.0778
##  9 -0.117  -0.263    0.215 
## 10 -0.144  -0.151    0.191 
## # … with 24 more rows
## 
## $goodness_of_fit
##       PC1       PC2       PC3 
## 0.7168777 0.4680599 0.3144671
…
Print Residuals

residuals(galaxy_x, galaxy_y, type = "cva", rank = 2, k = 0.001, plot = FALSE)

## # A tibble: 3,462 x 3
##    index    CV1    CV2
##    <int>  <dbl>  <dbl>
##  1     1 -0.320  0.561
##  2     2 -0.337 -0.324
##  3     3  0.234  0.224
##  4     4  0.219  0.671
##  5     5 -0.718  1.53 
##  6     6 -1.02   0.187
##  7     7  0.278  0.592
##  8     8 -0.124  0.689
##  9     9  0.254  0.270
## 10    10 -0.686 -0.169
## # … with 3,452 more rows
…
Print Canonical Variate scores

Print canonical variate scores with scores(), setting type = "cva".

scores(galaxy_x, galaxy_y, type = "cva", rank = 2, k = 0.001)

## $xi
## # A tibble: 3,462 x 2
##        xi1     xi2
##      <dbl>   <dbl>
##  1  0.108   0.185 
##  2 -0.0439  1.46  
##  3 -0.938   0.0593
##  4  0.0512  0.231 
##  5  0.0486 -0.283 
##  6 -0.572   0.374 
##  7  0.447   0.486 
##  8  0.527   0.228 
##  9  0.112   0.179 
## 10  3.05   -0.252 
## # … with 3,452 more rows
## 
## $omega
## # A tibble: 3,462 x 2
##    omega1 omega2
##     <dbl>  <dbl>
##  1 -0.212  0.746
##  2 -0.381  1.13 
##  3 -0.704  0.284
##  4  0.270  0.902
##  5 -0.670  1.25 
##  6 -1.59   0.561
##  7  0.726  1.08 
##  8  0.403  0.917
##  9  0.366  0.450
## 10  2.37  -0.421
## # … with 3,452 more rows
## 
## $canonical_corr
## [1] 0.927311439 0.354708001 0.063114244 0.018542243 0.005976463 0.003749350
…
Print LDA Scores with scores()

Print linear discriminant scores and the class means with scores(), setting type = "lda"

scores(iris_features, iris_class, type = "lda", k = 0.0001)

## $scores
## # A tibble: 150 x 3
##      LD1      LD2 class 
##    <dbl>    <dbl> <fct> 
##  1 -1.39  0.126   setosa
##  2 -1.23 -0.329   setosa
##  3 -1.29 -0.111   setosa
##  4 -1.17 -0.280   setosa
##  5 -1.40  0.215   setosa
##  6 -1.33  0.611   setosa
##  7 -1.24  0.149   setosa
##  8 -1.31 -0.00479 setosa
##  9 -1.13 -0.425   setosa
## 10 -1.26 -0.396   setosa
## # … with 140 more rows
## 
## $class_means
…
